MLearning – David Mwale - Data Science Portfolio
…
# A tibble: 3 × 4
  .metric     .estimator .estimate .config             
  <chr>       <chr>          <dbl> <chr>               
1 accuracy    binary        0.909  Preprocessor1_Model1
2 roc_auc     binary        0.790  Preprocessor1_Model1
3 brier_class binary        0.0743 Preprocessor1_Model1

lr_resultss<-lr_worflow_fit |> 
  collect_predictions()

lr_resultss

# A tibble: 1,358 × 7
   .pred_class .pred_Yes .pred_No id                .row diabetes .config       
   <fct>           <dbl>    <dbl> <chr>            <int> <fct>    <chr>         
 1 No             0.0774    0.923 train/test split     4 No       Preprocessor1…
 2 No             0.0941    0.906 train/test split    10 No       Preprocessor1…
 3 No             0.103     0.897 train/test split    11 No       Preprocessor1…
 4 No             0.101     0.899 train/test split    12 No       Preprocessor1…
 5 No             0.112     0.888 train/test split    14 No       Preprocessor1…
 6 No             0.0235    0.976 train/test split    15 No       Preprocessor1…
 7 No             0.207     0.793 train/test split    19 No       Preprocessor1…
 8 No             0.131     0.869 train/test split    22 Yes      Preprocessor1…
 9 No             0.122     0.878 train/test split    24 Yes      Preprocessor1…
10 No             0.0877    0.912 train/test split    28 No       Preprocessor1…
# ℹ 1,348 more rows
…
